<?xml version="1.0" encoding="utf-8"?>
<!-- Generator: Adobe Illustrator 16.0.3, SVG Export Plug-In . SVG Version: 6.00 Build 0)  -->
<!DOCTYPE svg PUBLIC "-//W3C//DTD SVG 1.1//EN" "http://www.w3.org/Graphics/SVG/1.1/DTD/svg11.dtd">
<svg version="1.1" xmlns="http://www.w3.org/2000/svg" xmlns:xlink="http://www.w3.org/1999/xlink" x="0px" y="0px" width="155px"
	 height="155px" viewBox="0 0 155 155" enable-background="new 0 0 155 155" xml:space="preserve">
<g id="圖層_7">
</g>
<g id="底紋">
</g>
<g id="照片美圖">
</g>
<g id="暗角遮罩">
</g>
<g id="網頁文案">
	<g>
		<g>
			<path fill="#FFFFFF" d="M152.499,77.501c0,41.42-33.58,74.999-74.998,74.999C36.08,152.5,2.5,118.921,2.5,77.501
				C2.5,36.083,36.08,2.5,77.501,2.5C118.919,2.5,152.499,36.083,152.499,77.501z"/>
			<path fill="#231815" d="M77.501,155C34.767,155,0,120.234,0,77.501C0,34.767,34.767,0,77.501,0
				c42.732,0,77.498,34.767,77.498,77.501C154.999,120.234,120.233,155,77.501,155z M77.501,5C37.523,5,5,37.524,5,77.501
				C5,117.477,37.523,150,77.501,150c39.976,0,72.498-32.523,72.498-72.499C149.999,37.524,117.477,5,77.501,5z"/>
		</g>
		<g>
			<path fill="#231815" d="M58.602,37.028c-0.07,0.525-0.385,0.841-1.295,0.98c0.734,13.757,4.131,21.388,15.996,25.203l-0.035,0.42
				c-2.555,0.525-4.13,2.45-4.689,5.215c-8.437-4.34-10.781-12.531-11.552-24.083c-0.665,9.241-3.29,18.202-16.696,24.363
				l-0.351-0.455C52.23,58.976,51.775,47.74,51.811,36.398L58.602,37.028z"/>
			<path fill="#231815" d="M109.422,45.044c-1.049,5.775-3.254,10.781-7.141,14.806c3.887,2.101,8.332,3.465,12.951,4.375
				l-0.104,0.42c-2.557,0.385-4.342,1.995-5.252,4.55c-4.34-1.505-8.121-3.465-11.236-6.266c-4.094,2.905-9.52,5.005-16.557,6.196
				l-0.139-0.35c6.23-2.101,10.885-4.936,14.246-8.366c-3.08-3.745-5.32-8.681-6.512-15.366h-7.105l-0.279-0.98h24.607l2.836-3.85
				c0,0,3.184,2.556,5.004,4.271c-0.104,0.385-0.488,0.56-1.014,0.56H109.422z M90.275,45.044c1.541,5.53,4.516,9.521,8.365,12.461
				c2.66-3.675,4.096-7.875,4.656-12.461H90.275z M94.406,36.013c12.25,0.56,8.086,10.151,3.15,6.792
				c-0.42-2.416-1.82-4.971-3.361-6.616L94.406,36.013z"/>
			<path fill="#231815" d="M73.268,103.901c-1.82,0.35-2.835,2.1-3.08,3.78h-0.875c0.35,0.245,2.451,1.89,3.781,3.08
				c-0.105,0.385-0.455,0.56-0.945,0.56h-6.967v2.871c0,3.115-0.805,4.726-6.16,5.11c-0.105-1.365-0.279-2.345-0.91-3.01
				c-0.63-0.63-1.365-1.12-3.36-1.435v-0.455c0,0,4.165,0.28,4.901,0.28c0.489,0,0.629-0.14,0.629-0.56v-2.8H40.189l-0.279-0.98
				h20.371v-2.415l6.021,0.455c-0.07,0.525-0.42,0.77-1.121,0.91v1.05h1.996l2.064-2.66h-9.346c-7.806,0-10.711-1.225-13.547-4.025
				c-0.594-0.63-1.015-0.56-1.364,0.07c-0.421,0.805-1.015,2.03-1.681,3.57c0.07,0.35-0.07,0.525-0.35,0.7l-2.905-4.375
				c1.89-0.56,4.48-1.575,5.181-1.645c0.875-1.155,1.715-2.73,2.205-4.13h-1.225l-1.4,1.225l-3.57-2.555
				c0.35-0.28,0.91-0.525,1.47-0.7c0.771-0.945,1.681-2.206,2.345-3.185H40.75l-0.315-0.98h4.726l1.016-1.015h-0.07
				c-0.98-1.33-3.15-2.905-4.796-3.641l0.245-0.315c7.176-1.96,8.261,2.555,6.23,3.746l3.011,2.73
				c-0.315,0.315-0.91,0.49-1.646,0.56c-0.63,0.875-1.575,2.135-2.38,3.15h0.595l2.101-1.995l2.87,2.24v-5.67l4.795,1.855h1.75
				c0-0.665,0.035-1.47,0-2.17h-8.575l-0.28-0.98h6.371c-0.245-0.105-0.525-0.245-0.77-0.42c-0.035-1.33-0.771-2.835-1.541-3.64
				l0.245-0.175c6.405-0.245,6.021,3.396,3.921,4.235h4.2c0.245-1.295,0.455-3.045,0.56-4.305l5.916,1.085
				c-0.07,0.455-0.455,0.77-1.26,0.77c-1.051,0.77-2.66,1.715-4.131,2.45h3.115l2.135-2.66c0,0,2.451,1.785,3.956,3.081
				c-0.104,0.385-0.49,0.56-0.979,0.56h-8.156c-0.771,0.77-1.715,1.575-2.556,2.17h3.745l2.031-2.135l4.095,3.081
				c-0.175,0.21-0.524,0.455-1.085,0.595v7.491c-0.035,0.315-2.311,1.295-3.886,1.295h-0.84v-1.365h-8.401
				c-0.524,0.455-2.17,1.12-3.745,1.12h-0.63V98.02c-0.176,0.035-0.385,0.035-0.63,0.035c-1.05,1.645-2.976,3.15-5.146,4.2
				l0.07,0.035c2.52,1.155,7.141,1.47,14.911,1.47c4.13,0,7.631,0,11.726-0.28V103.901z M46.35,111.812
				c10.922-0.945,7.981,7.876,3.326,5.425c-0.525-1.96-2.101-4.025-3.535-5.215L46.35,111.812z M56.922,94.275v1.645h8.19v-1.645
				H56.922z M65.112,98.58V96.9h-8.19v1.68H65.112z M65.112,101.275V99.56h-8.19v1.715H65.112z"/>
			<path fill="#231815" d="M113.482,114.437c1.26,0.49,1.541,1.015,1.541,1.75c0,1.61-1.471,2.135-7.457,2.135h-3.395
				c-3.92,0-4.621-0.77-4.621-3.5v-2.66h-1.574c-1.471,4.795-7.141,6.44-15.053,6.966l-0.068-0.455
				c5.635-1.19,8.785-2.976,9.66-6.476c-0.631,0.49-2.275,1.155-3.85,1.155H88v-12.251l-0.49,0.84l-4.41-2.555
				c0.279-0.35,0.699-0.735,1.121-1.05V86.189l4.375,2.065h5.25l1.996-2.555c0,0,2.275,1.75,3.674,2.976
				c-0.104,0.385-0.488,0.56-0.979,0.56h-4.412v2.065l1.471-1.505l3.535,2.59c-0.139,0.175-0.455,0.42-0.945,0.49v2.45
				c-0.035,0.28-2.064,0.945-3.324,0.945H94.16v-0.42h-0.035v2.906h0.07l1.82-2.346c0,0,2.102,1.61,3.361,2.766
				c-0.105,0.385-0.455,0.56-0.91,0.56h-9.662l-0.244,0.385l4.516,1.715h11.201l2.135-2.275l4.34,3.255
				c-0.209,0.245-0.594,0.525-1.26,0.665v8.611c-0.035,0.28-2.449,1.085-4.025,1.085h-0.84v-1.015h-0.176v0.35v1.785
				c0,0.35,0.07,0.49,0.91,0.49h2.836c0.805,0,1.645,0,2.17-0.035c0.455,0,0.666-0.105,0.91-0.385c0.385-0.49,0.98-1.47,1.785-3.185
				h0.314L113.482,114.437z M90.381,91.544v-2.311h-1.855v2.311H90.381z M94.16,92.524h-5.635v2.345h5.635V92.524z M90.381,95.85
				h-1.855v2.906h1.855V95.85z M92.795,102.815v2.17h11.832v-2.17H92.795z M104.627,105.966H92.795v2.065h11.832V105.966z
				 M104.627,111.182v-2.17H92.795v2.17H104.627z M98.467,93.575c1.225-1.89,2.275-4.761,2.73-7.736l6.02,2.1
				c-0.139,0.455-0.629,0.735-1.4,0.665c-0.209,0.28-0.385,0.56-0.594,0.805h3.744l2.102-2.66c0,0,2.414,1.785,3.85,3.08
				c-0.07,0.385-0.455,0.56-0.945,0.56h-5.215c0.594,0.42,1.855,1.33,2.73,2.066c0,0.069-0.035,0.104-0.035,0.139l3.324,2.451
				c-0.139,0.21-0.49,0.42-0.979,0.525v3.815c0,0.245-1.891,0.91-3.047,0.91h-0.664V99.35h-7.035v0.315
				c0,0.28-1.506,0.98-2.836,0.98h-0.455V93.47c-0.314,0.14-0.631,0.28-0.945,0.385L98.467,93.575z M102.246,92.14
				c-0.559,0.385-1.154,0.7-1.75,1.015l2.73,1.085h6.58l1.297-1.295c-0.141,0.035-0.316,0.07-0.525,0.07h-8.086L102.246,92.14z
				 M104.313,90.389c-0.596,0.63-1.26,1.155-1.926,1.646h4.48l1.436-1.646H104.313z M104.031,95.22h-0.979v3.15h0.979V95.22z
				 M105.957,98.37h1.086v-3.15h-1.086V98.37z M110.088,98.37v-3.15h-1.121v3.15H110.088z"/>
		</g>
	</g>
</g>
<g id="其他狀態列">
</g>
<g id="置頂_x5F_狀態列與選單">
</g>
</svg>
